Buffering/fifo.vcd
$date
     Aug 06, 2023       12:12:56
$end

$version
 SystemC 2.3.4-Accellera --- Jul 16 2023 12:27:40
$end

$timescale
     1 ps
$end

$scope module SystemC $end
$var wire    9  aaaaa  output [8:0]  $end
$var wire    9  aaaab  input [8:0]  $end
$var wire    1  aaaac  wok_o       $end
$var wire    1  aaaad  rok_o       $end
$var wire    1  aaaae  wr_i       $end
$var wire    1  aaaaf  rd_i       $end
$var wire    1  aaaag  rst_i       $end
$var wire    1  aaaah  clk_i       $end
$upscope $end
$enddefinitions  $end

$comment
All initial values are dumped below at time 0 sec = 0 timescale units.
$end

$dumpvars
b0 aaaaa
b0 aaaab
1aaaac
0aaaad
0aaaae
0aaaaf
1aaaag
1aaaah
$end

#5000
0aaaah

#10000
0aaaag
1aaaah

#15000
0aaaah

#20000
1aaaah

#25000
0aaaah

#30000
b1 aaaab
1aaaae
1aaaah

#35000
b1 aaaaa
1aaaad
0aaaah

#40000
0aaaae
1aaaaf
1aaaah

#45000
b0 aaaaa
0aaaad
0aaaah

#50000
b11 aaaab
1aaaae
0aaaaf
1aaaah

#55000
b11 aaaaa
1aaaad
0aaaah

#60000
0aaaae
1aaaaf
1aaaah

#65000
b0 aaaaa
0aaaad
0aaaah

#70000
b111 aaaab
1aaaae
0aaaaf
1aaaah

#75000
b111 aaaaa
1aaaad
0aaaah

#80000
0aaaae
1aaaaf
1aaaah

#85000
b0 aaaaa
0aaaad
0aaaah

#90000
b1111 aaaab
1aaaae
0aaaaf
1aaaah

#95000
b1111 aaaaa
1aaaad
0aaaah

#100000
0aaaae
1aaaaf
1aaaah

#105000
b1 aaaaa
0aaaad
0aaaah

#110000
b11111 aaaab
1aaaae
0aaaaf
1aaaah

#115000
b11111 aaaaa
1aaaad
0aaaah

#120000
0aaaae
1aaaaf
1aaaah

#125000
b11 aaaaa
0aaaad
0aaaah

#130000
b111111 aaaab
1aaaae
0aaaaf
1aaaah

#135000
b111111 aaaaa
1aaaad
0aaaah

#140000
0aaaae
1aaaaf
1aaaah

#145000
b111 aaaaa
0aaaad
0aaaah

#150000
b1111111 aaaab
1aaaae
0aaaaf
1aaaah

#155000
b1111111 aaaaa
1aaaad
0aaaah

#160000
0aaaae
1aaaaf
1aaaah

#165000
b1111 aaaaa
0aaaad
0aaaah

#170000
b11111111 aaaab
1aaaae
0aaaaf
1aaaah

#175000
b11111111 aaaaa
1aaaad
0aaaah

#180000
0aaaae
1aaaaf
1aaaah

#185000
b11111 aaaaa
0aaaad
0aaaah

#190000
b11111110 aaaab
1aaaae
0aaaaf
1aaaah

#195000
b11111110 aaaaa
1aaaad
0aaaah

#200000
0aaaae
1aaaaf
1aaaah

#205000
b111111 aaaaa
0aaaad
0aaaah

#210000
b11111100 aaaab
1aaaae
0aaaaf
1aaaah

#215000
b11111100 aaaaa
1aaaad
0aaaah

#220000
0aaaae
1aaaaf
1aaaah

#225000
b1111111 aaaaa
0aaaad
0aaaah

