Flow_in/flow_in.vcd
$date
     Aug 06, 2023       11:07:15
$end

$version
 SystemC 2.3.4-Accellera --- Jul 16 2023 12:27:40
$end

$timescale
     1 ps
$end

$scope module SystemC $end
$var wire    9  aaaaa  data_o [8:0]  $end
$var wire    9  aaaab  data_i [8:0]  $end
$var wire    1  aaaac  wr_o       $end
$var wire    1  aaaad  ack_o       $end
$var wire    1  aaaae  wok_i       $end
$var wire    1  aaaaf  val_i       $end
$var wire    1  aaaag  rst_i       $end
$var wire    1  aaaah  clk_i       $end
$upscope $end
$enddefinitions  $end

$comment
All initial values are dumped below at time 0 sec = 0 timescale units.
$end

$dumpvars
b0 aaaaa
b0 aaaab
0aaaac
0aaaad
0aaaae
0aaaaf
1aaaag
1aaaah
$end

#5000
0aaaah

#10000
1aaaaf
0aaaag
1aaaah

#15000
0aaaah

#20000
1aaaah

#25000
0aaaah

#30000
b1 aaaaa
b1 aaaab
1aaaae
1aaaah

#35000
0aaaah

#40000
1aaaac
1aaaad
0aaaae
1aaaah

#45000
0aaaah

#50000
b11 aaaaa
b11 aaaab
0aaaac
1aaaae
0aaaaf
1aaaah

#55000
0aaaah

#60000
0aaaad
0aaaae
1aaaah

#65000
0aaaah

#70000
b111 aaaaa
b111 aaaab
1aaaae
1aaaaf
1aaaah

#75000
0aaaah

#80000
1aaaac
1aaaad
0aaaae
1aaaah

#85000
0aaaah

#90000
b1111 aaaaa
b1111 aaaab
0aaaac
1aaaae
0aaaaf
1aaaah

#95000
0aaaah

#100000
0aaaad
0aaaae
1aaaah

#105000
0aaaah

#110000
b11111 aaaaa
b11111 aaaab
1aaaae
1aaaaf
1aaaah

#115000
0aaaah

#120000
1aaaac
1aaaad
0aaaae
1aaaah

#125000
0aaaah

#130000
b111111 aaaaa
b111111 aaaab
0aaaac
1aaaae
0aaaaf
1aaaah

#135000
0aaaah

#140000
0aaaad
0aaaae
1aaaah

#145000
0aaaah

#150000
b1111111 aaaaa
b1111111 aaaab
1aaaae
1aaaaf
1aaaah

#155000
0aaaah

#160000
1aaaac
1aaaad
0aaaae
1aaaah

#165000
0aaaah

#170000
b11111111 aaaaa
b11111111 aaaab
0aaaac
1aaaae
0aaaaf
1aaaah

#175000
0aaaah

#180000
0aaaad
0aaaae
1aaaah

#185000
0aaaah

#190000
b0 aaaaa
b0 aaaab
1aaaae
1aaaaf
1aaaah

#195000
0aaaah

#200000
1aaaac
1aaaad
0aaaae
1aaaah

#205000
0aaaah

#210000
0aaaac
1aaaae
0aaaaf
1aaaah

