Channel_out/channelout_tb_mode1.vcd
$date
     Aug 02, 2023       20:32:25
$end

$version
 SystemC 2.3.4-Accellera --- Jul 16 2023 12:27:40
$end

$timescale
     1 ps
$end

$scope module SystemC $end
$var wire    9  aaaaa  data0_i [8:0]  $end
$var wire    9  aaaab  data1_i [8:0]  $end
$var wire    9  aaaac  data2_i [8:0]  $end
$var wire    9  aaaad  data3_i [8:0]  $end
$var wire    1  aaaae  rd_o       $end
$var wire    4  aaaaf  rok_i [3:0]  $end
$var wire    4  aaaag  gnt_o [3:0]  $end
$var wire    4  aaaah  req_i [3:0]  $end
$var wire    1  aaaai  ack_i       $end
$var wire    1  aaaaj  val_o       $end
$var wire    9  aaaak  data_o [8:0]  $end
$var wire    1  aaaal  rst_i       $end
$var wire    1  aaaam  clk_i       $end
$upscope $end
$enddefinitions  $end

$comment
All initial values are dumped below at time 0 sec = 0 timescale units.
$end

$dumpvars
b0 aaaaa
b0 aaaab
b0 aaaac
b0 aaaad
0aaaae
b0 aaaaf
b0 aaaag
b0 aaaah
0aaaai
0aaaaj
b0 aaaak
1aaaal
1aaaam
$end

#5000
0aaaam

#10000
0aaaal
1aaaam

#15000
0aaaam

#20000
1aaaam

#25000
0aaaam

#30000
b1000 aaaaf
b10 aaaah
1aaaam

#35000
b10 aaaag
0aaaam

#40000
b111000111 aaaad
1aaaam

#45000
0aaaam

#50000
1aaaam

#55000
0aaaam

#60000
b10 aaaad
1aaaam

#65000
0aaaam

#70000
1aaaam

#75000
0aaaam

#80000
b100 aaaad
1aaaam

#85000
0aaaam

#90000
1aaaam

#95000
0aaaam

#100000
b100000000 aaaad
1aaaam

#105000
0aaaam

#110000
1aaaam

#115000
0aaaam

#120000
b0 aaaad
1aaaam

#125000
0aaaam

#130000
b0 aaaaf
b0 aaaah
1aaaam

#135000
b0 aaaag
0aaaam

